SBER,214.06,7,2019-01-30 09:59:53.285020
SBER,214.06,20,2019-01-30 09:59:53.285055
SBER,214.09,21,2019-01-30 09:59:53.286278
SBER,214.09,10,2019-01-30 09:59:53.289717
SBER,214.09,40,2019-01-30 09:59:53.290760
SBER,214.01,100,2019-01-30 09:59:56.826765
SBER,213.99,1,2019-01-30 09:59:59.587818
SBER,214,2,2019-01-30 10:00:02.333454
SBER,214.03111111,10,2019-01-30 10:00:02.480419
SBER,213.98,1,2019-01-30 10:00:02.567999
SBER,213.98,156,2019-01-30 10:00:03.099349
SBER,213.98,24,2019-01-30 10:00:03.099349
SBER,213.98,344,2019-01-30 10:00:03.463616
SBER,210.96,14,2019-01-30 10:00:03.467490
SBER,213.96,5,2019-01-30 10:00:03.467490
SBER,213.96,10,2019-01-30 10:00:03.467490
SBER,213.98,10,2019-01-30 10:00:04.387738
SBER,213.98,50,2019-01-30 10:00:05.508906
SBER,213.98,50,2019-01-30 10:00:05.508906
SBER,213.98,240,2019-01-30 10:00:05.508906
SBER,213.98,120,2019-01-30 10:00:06.333170
SBER,213.98,150,2019-01-30 10:00:06.333235
SBER,214,3,2019-01-30 10:00:06.893547
SBER,214.09,93,2019-01-30 10:00:06.893547
SBER,214.09,25,2019-01-30 10:00:06.893547
SBER,214.09,176,2019-01-30 10:00:06.893547
SBER,214.08,200,2019-01-30 10:00:06.893547
SBER,214.08,250,2019-01-30 10:00:06.893547
SBER,214.07,176,2019-01-30 10:00:06.893547
SBER,214.07,50,2019-01-30 10:00:06.893547
SBER,214.06,250,2019-01-30 10:00:06.893547
SBER,214.05,176,2019-01-30 10:00:06.893547
SBER,214.05,50,2019-01-30 10:00:06.893547
SBER,214.04,250,2019-01-30 10:00:06.893547
SBER,214.03,50,2019-01-30 10:00:06.893547
SBER,214.02,250,2019-01-30 10:00:06.893547
SBER,214,1,2019-01-30 10:00:06.893547
SBER,214.06,5,2019-01-30 10:00:07.513413
SBER,214.08,50,2019-01-30 10:00:10.000292
SBER,214.09,24,2019-01-30 10:00:10.000292
SBER,214.07,250,2019-01-30 10:00:10.000292
SBER,214.06,50,2019-01-30 10:00:10.000292
SBER,214.06,12,2019-01-30 10:00:10.000292
SBER,213.98,12,2019-01-30 10:00:12.627843
SBER,2142.11,140,2019-01-30 10:00:16.002619
SBER,214.11,200,2019-01-30 10:00:16.002619
SBER,214.12,250,2019-01-30 10:00:16.002619
SBER,214.13,350,2019-01-30 10:00:16.002619
SBER,214.14,1,2019-01-30 10:00:16.002619
SBER,214.15,50,2019-01-30 10:00:16.002619
SBER,214.16,50,2019-01-30 10:00:16.002619
SBER,214.17,10,2019-01-30 10:00:16.002619
SBER,214.18,20,2019-01-30 10:04:16.002619
SBER,214.19,1,2019-01-30 10:05:16.002619
SBER,214.09,50,2019-01-30 10:05:16.002619
SBER,214.08,50,2019-01-30 10:07:10.000292
SBER,214.09,24,2019-01-30 10:08:10.000292
SBER,214.07,250,2019-01-30 10:11:10.000292